{
  "project_info": {
    "project_number": "124046161101",
    "project_id": "fsmmap",
    "storage_bucket": "fsmmap.appspot.com"
  },
  "client": [
    {
      "client_info": {
        "mobilesdk_app_id": "1:124046161101:android:36b7209443c59e8be4a584",
        "android_client_info": {
          "package_name": "com.app.fsm"
        }
      },
      "oauth_client": [
        {
          "client_id": "124046161101-k5c517k48i5fquqrmk3n00309248ntj7.apps.googleusercontent.com",
          "client_type": 3
        }
      ],
      "api_key": [
        {
          "current_key": "AIzaSyBWunJTo3mVHKmfaoxgGmKTW8SlQL5gEN4"
        }
      ],
      "services": {
        "appinvite_service": {
          "other_platform_oauth_client": [
            {
              "client_id": "124046161101-k5c517k48i5fquqrmk3n00309248ntj7.apps.googleusercontent.com",
              "client_type": 3
            }
          ]
        }
      }
    },
    {
      "client_info": {
        "mobilesdk_app_id": "1:124046161101:android:02eef5eb6bae35b2e4a584",
        "android_client_info": {
          "package_name": "com.app.oass"
        }
      },
      "oauth_client": [
        {
          "client_id": "124046161101-k5c517k48i5fquqrmk3n00309248ntj7.apps.googleusercontent.com",
          "client_type": 3
        }
      ],
      "api_key": [
        {
          "current_key": "AIzaSyBWunJTo3mVHKmfaoxgGmKTW8SlQL5gEN4"
        }
      ],
      "services": {
        "appinvite_service": {
          "other_platform_oauth_client": [
            {
              "client_id": "124046161101-k5c517k48i5fquqrmk3n00309248ntj7.apps.googleusercontent.com",
              "client_type": 3
            }
          ]
        }
      }
    }
  ],
  "configuration_version": "1"
}